…
augmented_metabolite_data <- arrow::read_parquet("./results/dataframes/augmented_metabolite_data_v2.parquet.gzip") 
```

```
## Error: IOError: Failed to open local file './results/dataframes/augmented_metabolite_data_v2.parquet.gzip'. Detail: [errno 2] No such file or directory
```

```r
augmented_metabolite_data
```

```
## # A tibble: 15,004 × 46
##    Condi…¹   Phe   Met   Val Leu.Ile   Tyr   Pro   Arg   Gly   Ala   Asp   Glu   Cit    Orn    SA    C0    C2    C3    C4 C4OH.…² C5.OH…³    C5  C5DC   C5.1
##    <chr>   <dbl> <dbl> <dbl>   <dbl> <dbl> <dbl> <dbl> <dbl> <dbl> <dbl> <dbl> <dbl>  <dbl> <dbl> <dbl> <dbl> <dbl> <dbl>   <dbl>   <dbl> <dbl> <dbl>  <dbl>
##  1 PKU      238.  27.3 155.    178.   97   174.  17.3  206.  272.   14.9  157. 21.2  115.   0.26   27.0  7.52 0.63  0.11   0.02     0.13   0.11 0.02  0.06  
##  2 PKU      996.  26.4 154.    128.   97.8  99.6 18.8   22.3 112.   61.6  174. 26.1   92.6  0.21   20.5  9.63 0.95  0.11   0.02     0.12   0.11 0.02  0.07  
##  3 PKU     1462.  16.8 131.    160.   73.6  77.6 34.1  316.  314.   56.4  463. 11.2    6.89 0.187  24.4  9.79 0.963 0.171  0.0471   0.269  0.1  0.108 0.09  
##  4 PKU     1082   18.8  85.3   126.   46.0  93.8 13.0  155.   50.9  40.6  116. 12.2   38.9  0.55   21.8  5.54 0.68  0.13   0.05     0.13   0.07 0.06  0.06  
##  5 PKU     1467.  13.2 101.    142.   58.3 127.   1.67 133.  123.   44.3  365.  9.34  39.1  0.47   24.7  6.59 1.21  0.11   0.02     0.12   0.11 0.03  0.01  
##  6 PKU      689.  15.6 122.    125.   69.0  50.2  4.5  303.  281.   53.6  185.  5.09 108.   0      20.0  9.59 0.78  0.17   0.09     0.18   0.1  0.05  0.01  
##  7 PKU      362.  17.5 127.    165.   86.3 159.  14.7  302.  166.   38.0  381.  5.5   95.9  0.58   17.4  5.76 0.37  0.14   0.08     0.27   0.09 0.02  0     
##  8 PKU     1440.  19.9  66.8    85.7  62.5  93.8 19.4  215.  174.   16.5  235. 14.0   13.1  0.47   20.0  7.03 0.46  0.08   0.05     0.14   0.09 0.05  0.01  
##  9 PKU      761.  11.4 106.    127.   36.9  87.0  6.69 162.  104.   32.3  359. 23.7   63.5  0      18.1  9.2  0.81  0.16   0        0.16   0.11 0.12  0.0233
## 10 PKU      732.  19.7 102.    105.   45.8  86.4 12.4  132.  133.   25.3  146. 21.0   45.7  0.08   23.2 12.0  1.29  0.09   0.02     0.16   0.1  0.05  0.02  
## # … with 14,994 more rows, 22 more variables: C6 <dbl>, C6DC <dbl>, C8 <dbl>, C8.1 <dbl>, C10 <dbl>, C10.1 <dbl>, C10.2 <dbl>, C12 <dbl>, C12.1 <dbl>,
## #   C14 <dbl>, C14.1 <dbl>, C14.2 <dbl>, C14OH <dbl>, C16 <dbl>, C16OH <dbl>, C16.1 <dbl>, C16.1OH <dbl>, C18 <dbl>, C18OH <dbl>, C18.1 <dbl>,
## #   C18.1OH <dbl>, C18.2 <dbl>, and abbreviated variable names ¹​Condicion, ²​C4OH.C3DC, ³​C5.OH.C4DC
```
